2.Time Series Graphics
…
  .. ..$ : int [1:176] 5928 5929 5930 5931 5932 5933 5934 5935 5936 5937 ...
  .. ..$ : int [1:282] 6104 6105 6106 6107 6108 6109 6110 6111 6112 6113 ...
  .. ..$ : int [1:282] 6386 6387 6388 6389 6390 6391 6392 6393 6394 6395 ...
  .. ..$ : int [1:175] 6668 6669 6670 6671 6672 6673 6674 6675 6676 6677 ...
  .. ..$ : int [1:283] 6843 6844 6845 6846 6847 6848 6849 6850 6851 6852 ...
  .. ..$ : int [1:282] 7126 7127 7128 7129 7130 7131 7132 7133 7134 7135 ...
  .. ..@ ptype: int(0) 
  ..- attr(*, ".drop")= logi TRUE
 - attr(*, "index")= chr "Week"
  ..- attr(*, "ordered")= logi TRUE
 - attr(*, "index2")= chr "Week"
 - attr(*, "interval")= interval [1:1] 1W
  ..@ .regular: logi TRUE

# A tsibble: 7,407 x 4 [1W]
# Key:       Airports, Class [30]
       Week Airports Class    Passengers
     <week> <chr>    <chr>         <dbl>
 1 1989 W28 ADL-PER  Business        193
 2 1989 W29 ADL-PER  Business        254
 3 1989 W30 ADL-PER  Business        185
 4 1989 W31 ADL-PER  Business        254
 5 1989 W32 ADL-PER  Business        191
 6 1989 W33 ADL-PER  Business        136
 7 1989 W34 ADL-PER  Business          0
 8 1989 W35 ADL-PER  Business          0
 9 1989 W36 ADL-PER  Business          0
10 1989 W37 ADL-PER  Business          0
# ℹ 7,397 more rows
…
Repetetive patterns in data but not at known frequency is called “cycle”. Example - The Chemical industry goes through cycles of boom and bust. This is inevitable, the only thing that changes and is perhasp not predictable is the gap between these cycles. The duration of these repeated pattern is atleast 2-years.

Cycle vs Seasonality?

Seasonality is related to the calendar features ie the patterns tends to repat every year

Cycles occur at a frequency greater than 2-years

magnitude of cycles tends to be greater than that of seasonal pattern

Chapter 2.4

Seasonal plot

# A tsibble: 52,608 x 5 [30m] <Australia/Melbourne>
   Time                Demand Temperature Date       Holiday
   <dttm>               <dbl>       <dbl> <date>     <lgl>  
 1 2012-01-01 00:00:00  4383.        21.4 2012-01-01 TRUE   
 2 2012-01-01 00:30:00  4263.        21.0 2012-01-01 TRUE   
 3 2012-01-01 01:00:00  4049.        20.7 2012-01-01 TRUE   
 4 2012-01-01 01:30:00  3878.        20.6 2012-01-01 TRUE   
 5 2012-01-01 02:00:00  4036.        20.4 2012-01-01 TRUE   
 6 2012-01-01 02:30:00  3866.        20.2 2012-01-01 TRUE   
 7 2012-01-01 03:00:00  3694.        20.1 2012-01-01 TRUE   
 8 2012-01-01 03:30:00  3562.        19.6 2012-01-01 TRUE   
 9 2012-01-01 04:00:00  3433.        19.1 2012-01-01 TRUE   
10 2012-01-01 04:30:00  3359.        19.0 2012-01-01 TRUE   
# ℹ 52,598 more rows
…
